{
    "plugin_test": "0.1.0",
    "platform": {
        "branch": "branch_master",
        "name": "project_test",
        "repo": "project_test.git",
        "plugin_dir": "project_test/plugins"
    }
}
